…
A tibble with 24 rows and 2 columns:

- setting:

  Integer setting code

- setting_label:

  Descriptive label

## Examples

``` r
practice_settings
#> # A tibble: 24 × 2
#>    setting setting_label           
#>      <int> <chr>                   
#>  1       0 Other                   
#>  2       1 WIC Practice            
#>  3       2 OOH Practice            
#>  4       3 WIC + OOH Practice      
#>  5       4 GP Practice             
#>  6       8 Public Health Service   
#>  7       9 Community Health Service
#>  8      10 Hospital Service        
#>  9      11 Optometry Service       
#> 10      12 Urgent & Emergency Care 
#> # ℹ 14 more rows
```
