Getting started with opr • opr
…
practices_sample |>
  select(code, name, postcode, setting, status_code)
#> # A tibble: 5 × 5
#>   code   name                       postcode setting status_code
#>   <chr>  <chr>                      <chr>      <int> <chr>      
#> 1 A81001 THE DENSHAM SURGERY        TS18 1HU       4 A          
#> 2 A81002 QUEENS PARK MEDICAL CENTRE TS18 2AW       4 A          
#> 3 A81003 VICTORIA MEDICAL PRACTICE  TS26 8DB       4 B          
#> 4 A81004 ACKLAM MEDICAL CENTRE      TS5 8SB        4 A          
#> 5 A81005 SPRINGWOOD SURGERY         TS14 7DJ       4 A

The labels come from lookup tables shipped with the package:

practice_settings
#> # A tibble: 24 × 2
#>    setting setting_label           
#>      <int> <chr>                   
#>  1       0 Other                   
#>  2       1 WIC Practice            
#>  3       2 OOH Practice            
#>  4       3 WIC + OOH Practice      
#>  5       4 GP Practice             
#>  6       8 Public Health Service   
#>  7       9 Community Health Service
#>  8      10 Hospital Service        
#>  9      11 Optometry Service       
#> 10      12 Urgent & Emergency Care 
#> # ℹ 14 more rows
…
